{
  "kind": "collectionType",
  "collectionName": "questions",
  "info": {
    "singularName": "question",
    "pluralName": "questions",
    "displayName": "question"
  },
  "options": {
    "draftAndPublish": true
  },
  "pluginOptions": {},
  "attributes": {
    "name": {
      "type": "string"
    },
    "email": {
      "type": "email"
    },
    "telephone": {
      "type": "string"
    },
    "message": {
      "type": "text"
    }
  }
}
