{
  "kind": "collectionType",
  "collectionName": "reports",
  "info": {
    "singularName": "report",
    "pluralName": "reports",
    "displayName": "Report"
  },
  "options": {
    "draftAndPublish": true
  },
  "pluginOptions": {},
  "attributes": {
    "title": {
      "type": "string"
    },
    "file": {
      "allowedTypes": [
        "images",
        "files",
        "videos",
        "audios"
      ],
      "type": "media",
      "multiple": false
    },
    "report_category": {
      "type": "relation",
      "relation": "manyToOne",
      "target": "api::report-category.report-category",
      "inversedBy": "reports"
    }
  }
}
