{
  "kind": "collectionType",
  "collectionName": "jobs",
  "info": {
    "singularName": "job",
    "pluralName": "jobs",
    "displayName": "Job",
    "description": ""
  },
  "options": {
    "draftAndPublish": true
  },
  "pluginOptions": {},
  "attributes": {
    "position": {
      "type": "string"
    },
    "location": {
      "type": "string"
    },
    "status": {
      "type": "string"
    },
    "type": {
      "type": "string"
    },
    "description": {
      "type": "text"
    },
    "qualification": {
      "type": "text"
    },
    "due_date": {
      "type": "date"
    }
  }
}
