{
  "kind": "collectionType",
  "collectionName": "report_categories",
  "info": {
    "singularName": "report-category",
    "pluralName": "report-categories",
    "displayName": "ReportCategory"
  },
  "options": {
    "draftAndPublish": true
  },
  "pluginOptions": {},
  "attributes": {
    "name": {
      "type": "string"
    },
    "reports": {
      "type": "relation",
      "relation": "oneToMany",
      "target": "api::report.report",
      "mappedBy": "report_category"
    }
  }
}
